…
> # experiments. However, the first experiment included all of the cultivars, but
> # the second one only included those that showed resistance. We should account
> # for this when combining these data.
> 
> # Organizing Data
> cultivar_ST <- hproj %>% 
+   filter(Isolate == "2D") %>%
+   select(-Isolate) %>%
+   bind_rows(iproj, .id = "Experiment")
> 
> cultivars_to_keep <- cultivar_ST %>% 
+   count(Cultivar) %>%
+   arrange(n)
> cultivars_to_keep # we should remove the top 4.
# A tibble: 23 x 2
   Cultivar            n
   <chr>           <int>
 1 BRS Cometa          7
 2 IAC Formoso         7
 3 IPR Chopina         7
 4 IPR Quero-quero     7
 5 BRS Pontal         22
 6 BRS Requinte       22
 7 IAC Alvorada       22
 8 IAC Diplomata      22
 9 IAC Imperador      22
10 IAC Kaburé         22
# ... with 13 more rows
…
